{
  "name": "sort-module-settings",
  "title": "Sort Module Settings",
  "description": "Sorts the Module Settings window alphabetically",
  "version": "0.5",
  "author": "Eadorin",
  "esmodules": ["sort-module-settings.js"],
  "compatibleCoreVersion": "0.6.0",
  "minimumCoreVersion": "0.6.0",
  "systems": ["dnd5e"],
  "manifest": "https://gitlab.com/foundryvtt1/sortmodulesettings/-/raw/master/module.json",
  "download": "https://gitlab.com/foundryvtt1/sortmodulesettings/-/archive/master/sortmodulesettings-master.zip",
  "url": "https://gitlab.com/foundryvtt1/sortmodulesettings"
}
